-- Merging decision tree log ---
manifest
ADDED from C:\Users\bobby\Desktop\Navia Life Care\DrGSGupta\library\src\main\AndroidManifest.xml:16:1-21:12
INJECTED from C:\Users\bobby\Desktop\Navia Life Care\DrGSGupta\library\src\main\AndroidManifest.xml:16:1-21:12
INJECTED from C:\Users\bobby\Desktop\Navia Life Care\DrGSGupta\library\src\main\AndroidManifest.xml:16:1-21:12
	package
		ADDED from C:\Users\bobby\Desktop\Navia Life Care\DrGSGupta\library\src\main\AndroidManifest.xml:17:5-50
		INJECTED from C:\Users\bobby\Desktop\Navia Life Care\DrGSGupta\library\src\main\AndroidManifest.xml
		INJECTED from C:\Users\bobby\Desktop\Navia Life Care\DrGSGupta\library\src\main\AndroidManifest.xml
	xmlns:android
		ADDED from C:\Users\bobby\Desktop\Navia Life Care\DrGSGupta\library\src\main\AndroidManifest.xml:16:11-69
uses-permission#android.permission.VIBRATE
ADDED from C:\Users\bobby\Desktop\Navia Life Care\DrGSGupta\library\src\main\AndroidManifest.xml:19:5-66
	android:name
		ADDED from C:\Users\bobby\Desktop\Navia Life Care\DrGSGupta\library\src\main\AndroidManifest.xml:19:22-63
application
ADDED from C:\Users\bobby\Desktop\Navia Life Care\DrGSGupta\library\src\main\AndroidManifest.xml:20:5-20
uses-sdk
INJECTED from C:\Users\bobby\Desktop\Navia Life Care\DrGSGupta\library\src\main\AndroidManifest.xml reason: use-sdk injection requested
INJECTED from C:\Users\bobby\Desktop\Navia Life Care\DrGSGupta\library\src\main\AndroidManifest.xml
INJECTED from C:\Users\bobby\Desktop\Navia Life Care\DrGSGupta\library\src\main\AndroidManifest.xml
INJECTED from C:\Users\bobby\Desktop\Navia Life Care\DrGSGupta\library\src\main\AndroidManifest.xml
INJECTED from C:\Users\bobby\Desktop\Navia Life Care\DrGSGupta\library\src\main\AndroidManifest.xml
	android:targetSdkVersion
		INJECTED from C:\Users\bobby\Desktop\Navia Life Care\DrGSGupta\library\src\main\AndroidManifest.xml
		ADDED from C:\Users\bobby\Desktop\Navia Life Care\DrGSGupta\library\src\main\AndroidManifest.xml
		INJECTED from C:\Users\bobby\Desktop\Navia Life Care\DrGSGupta\library\src\main\AndroidManifest.xml
	android:minSdkVersion
		INJECTED from C:\Users\bobby\Desktop\Navia Life Care\DrGSGupta\library\src\main\AndroidManifest.xml
		ADDED from C:\Users\bobby\Desktop\Navia Life Care\DrGSGupta\library\src\main\AndroidManifest.xml
		INJECTED from C:\Users\bobby\Desktop\Navia Life Care\DrGSGupta\library\src\main\AndroidManifest.xml
